<svg width="24" height="24" viewBox="0 0 24 24" fill="none" xmlns="http://www.w3.org/2000/svg">
<path fill-rule="evenodd" clip-rule="evenodd" d="M17.8714 4.09708C20.0697 7.0581 19.7193 9.13175 19.5994 9.59785L19.5902 9.9556C20.8814 11.5948 20.7559 14.3244 18.527 15.0258C18.3531 15.9067 18.0957 16.6573 17.6483 17.4245C17.0847 18.3887 16.7499 20.6052 15.8502 21.2318C15.664 21.3616 15.4288 21.4149 15.1587 21.3887C15.0093 21.711 14.7742 22.1509 14.4975 22.4311C13.6805 23.2605 12.7026 22.9991 11.7119 22.7777C10.7226 22.9993 9.74633 23.2627 8.92539 22.4311C8.64877 22.1509 8.41364 21.7119 8.26426 21.3887C7.99594 21.4149 7.75896 21.3607 7.5727 21.2318C6.67565 20.6079 6.36125 18.4288 5.77557 17.4254C5.33765 16.6722 5.08012 15.942 4.90604 15.0781L4.88484 15.0743C4.81568 15.0594 4.76035 15.0183 4.72255 14.9641C2.63024 14.1553 2.58382 11.5382 3.83366 9.9556L3.82444 9.59785C3.70365 9.13081 3.35418 7.05716 5.5515 4.09708C8.61861 -0.0344781 14.8075 -0.0302387 17.8714 4.09708ZM11.5201 17.5198C10.1223 17.5198 9.73775 17.8411 9.66859 17.9139L8.70686 21.0711C8.82212 21.3308 9.0508 21.7941 9.30253 22.0491C9.98658 22.7421 10.845 22.4182 11.6538 22.2368C11.6907 22.2284 11.7313 22.2284 11.7691 22.2368C12.5836 22.4199 13.4395 22.738 14.1213 22.0491C14.3703 21.7969 14.5943 21.342 14.7115 21.0814L13.522 17.955C13.4298 17.8682 12.9678 17.5188 11.5211 17.5188L11.5201 17.5198ZM5.47312 15.1846C5.63029 15.9136 5.86116 16.5126 6.23384 17.1489C6.58418 17.7502 7.47002 20.9253 8.21631 20.8507L9.14393 17.8037L8.09829 15.2518C7.794 15.2948 7.45283 15.3219 7.0674 15.3219C6.59898 15.3219 6.06879 15.2817 5.47312 15.1846ZM17.9581 15.1481C17.2841 15.2696 16.6856 15.3219 16.1693 15.3219C15.853 15.3219 15.5681 15.3023 15.3071 15.2724L14.0439 17.8252L15.1946 20.8488C15.9302 20.929 16.7834 17.8431 17.1882 17.1508C17.5674 16.5026 17.7991 15.8909 17.9581 15.1481ZM14.1905 16.3232C13.6796 16.6473 12.9825 16.9304 12.066 16.9967C12.9023 17.0527 13.3873 17.2311 13.6612 17.3946L14.1905 16.3232ZM9.0969 16.2802L9.53397 17.3451C9.81428 17.1816 10.303 17.0238 11.1504 16.9873C10.2467 16.9051 9.57638 16.6109 9.0969 16.2802ZM5.9775 4.42213C4.7717 6.04729 4.27112 7.58279 4.35556 9.55021L4.36939 10.0415C4.37124 10.1069 4.34818 10.1723 4.30669 10.2227C1.46593 13.6083 6.85632 16.2214 9.64646 14.1487C9.7608 14.0553 9.9277 14.0711 10.0208 14.186C10.1149 14.3 10.1001 14.4681 9.98763 14.5643C9.95628 14.5905 9.54688 14.924 8.67643 15.1388C8.98072 15.561 9.84471 16.4717 11.6538 16.4717C13.3938 16.4717 14.3334 15.6124 14.7004 15.1715C13.734 14.9595 13.2822 14.5924 13.25 14.5643C13.1365 14.4681 13.1209 14.2981 13.2158 14.1832C13.3099 14.0702 13.4768 14.0543 13.5902 14.1487C16.3648 16.4483 21.9062 13.567 19.1172 10.2227C19.0747 10.1723 19.0526 10.1079 19.0535 10.0415C19.0585 9.86419 19.0321 9.65761 19.0766 9.48483C19.1365 9.27186 19.5948 7.31777 17.4445 4.42213C14.5905 0.575483 8.8345 0.57309 5.9775 4.42213ZM12.1186 7.62322C12.5231 7.78934 12.0193 8.43979 12.2264 8.75065C12.2864 8.84032 12.4109 8.88609 12.5971 8.88702C12.6405 8.87768 12.8 8.77213 12.9272 8.68806C13.7248 8.16124 15.3864 7.0637 18.7935 8.26026C18.9327 8.30883 19.0065 8.46295 18.9586 8.60399C18.9097 8.74411 18.7575 8.81883 18.6192 8.77026C18.2273 8.63295 17.8613 8.52834 17.5183 8.45081C17.5137 8.68993 17.486 9.00191 17.4362 9.38768C17.3661 9.92945 16.8765 10.418 15.9812 10.8402C15.5238 11.0559 15.0102 11.1643 14.539 11.1643C14.0798 11.1643 13.6603 11.0616 13.3717 10.8561C12.9254 10.5357 12.7511 9.79774 12.6893 9.41291C12.1079 9.53418 11.3134 9.53729 10.7345 9.41291C10.6718 9.79774 10.4975 10.5357 10.0513 10.8551C9.76264 11.0606 9.34402 11.1634 8.8839 11.1634C8.41364 11.1634 7.89912 11.0559 7.44177 10.8402C6.54735 10.418 6.05772 9.92945 5.98672 9.38768C5.93693 9.00191 5.90927 8.689 5.90373 8.44987C5.56164 8.52834 5.19558 8.63295 4.80461 8.77026C4.66446 8.81883 4.51324 8.74504 4.46437 8.60399C4.41642 8.46295 4.49018 8.30883 4.63034 8.26026C8.03651 7.06464 9.6981 8.16124 10.4957 8.68806C10.6239 8.77213 10.7825 8.87768 10.8369 8.88702C11.0121 8.88702 11.1375 8.84032 11.1965 8.75065C11.4032 8.44024 10.9019 7.78849 11.3044 7.62322C11.4019 7.5829 12.0784 7.60672 12.1186 7.62322ZM16.9862 8.34899C16.315 8.24344 15.7469 8.24998 15.2638 8.31817C15.6308 8.44707 15.8972 8.79642 15.8972 9.21115C15.8972 9.73423 15.4768 10.1592 14.9604 10.1592C14.444 10.1592 14.0245 9.73423 14.0245 9.21115C14.0245 8.96548 14.1195 8.74411 14.2707 8.5741C13.8859 8.72398 13.54 8.93549 13.1928 9.15697C13.2334 9.54741 13.3956 10.2125 13.6796 10.4142C14.1047 10.7178 15.036 10.6898 15.7571 10.3507C16.4551 10.021 16.8636 9.6539 16.9078 9.3167C16.9724 8.80949 16.9871 8.51713 16.9862 8.34899ZM8.15822 8.31817C7.67505 8.24998 7.10705 8.24344 6.43578 8.34806C6.43393 8.51619 6.44868 8.80949 6.51415 9.31763C6.55841 9.6539 6.96689 10.021 7.66583 10.3507C8.38505 10.6898 9.31636 10.7178 9.74236 10.4142C9.90528 10.2977 10.4178 9.27725 10.2043 9.14109C9.95628 8.97763 9.61419 8.75438 9.15038 8.5741C9.30253 8.74224 9.39842 8.96548 9.39842 9.21115C9.39842 9.73423 8.97795 10.1592 8.46159 10.1592C7.94522 10.1592 7.52568 9.73423 7.52568 9.21115C7.52568 8.79642 7.79123 8.44614 8.15822 8.31817ZM8.46159 8.80295C8.23937 8.80295 8.05864 8.98603 8.05864 9.21115C8.05864 9.43532 8.23937 9.61934 8.46159 9.61934C8.68381 9.61934 8.86454 9.43626 8.86454 9.21115C8.86454 8.98603 8.68381 8.80295 8.46159 8.80295ZM14.9595 8.80295C14.7373 8.80295 14.5565 8.98603 14.5565 9.21115C14.5565 9.43532 14.7373 9.61934 14.9595 9.61934C15.1817 9.61934 15.3624 9.43626 15.3624 9.21115C15.3624 8.98603 15.1817 8.80295 14.9595 8.80295Z" fill="#838A94"/>
<path fill-rule="evenodd" clip-rule="evenodd" d="M4.95858 11.2026C5.77186 11.2026 6.43391 11.8733 6.43391 12.6971C6.43391 13.5229 5.77186 14.1935 4.95858 14.1935C4.14347 14.1935 3.48141 13.5229 3.48141 12.6981C3.48141 11.8733 4.14347 11.2035 4.95766 11.2035L4.95858 11.2026ZM18.5021 11.2026C19.3163 11.2026 19.9774 11.8733 19.9774 12.6971C19.9774 13.5229 19.3163 14.1935 18.5021 14.1935C17.6879 14.1935 17.0268 13.5229 17.0268 12.6981C17.0268 11.8733 17.6879 11.2035 18.5021 11.2035V11.2026ZM4.95766 11.7425C4.43761 11.7425 4.0153 12.1712 4.0153 12.6981C4.0153 13.2249 4.43761 13.6527 4.95766 13.6527C5.47772 13.6527 5.90095 13.2249 5.90095 12.6981C5.90095 12.1712 5.47772 11.7425 4.95766 11.7425ZM18.503 11.7425C17.9821 11.7425 17.5597 12.1712 17.5597 12.6981C17.5597 13.2249 17.9821 13.6527 18.5021 13.6527C19.0222 13.6527 19.4454 13.2249 19.4454 12.6981C19.4454 12.1712 19.0212 11.7425 18.5021 11.7425H18.503Z" fill="#1A9FDF"/>
</svg>
