<svg width="24" height="24" viewBox="0 0 24 24" fill="none" xmlns="http://www.w3.org/2000/svg">
<path fill-rule="evenodd" clip-rule="evenodd" d="M12.0005 2C16.9341 2 20.9477 6.03471 20.9477 10.9943V11.0829C22.1534 11.4337 23 12.5451 23 13.8318C23 15.1453 22.1277 16.2678 20.8881 16.5982C20.6567 18.4924 19.7375 19.9046 18.1536 20.7982C16.7211 21.6068 14.7083 22 12.0005 22C9.29167 22 7.27981 21.6068 5.84736 20.7982C4.26341 19.9046 3.34425 18.4924 3.11194 16.5982C1.87324 16.2678 1 15.1453 1 13.8318C1 12.5451 1.84753 11.4328 3.05317 11.0829V10.9943C3.05317 6.03378 7.06678 2 12.0005 2ZM12.4348 2.72645C14.3162 3.54798 15.3043 5.2621 15.3043 6.58762C15.3043 8.05437 14.1179 9.24697 12.6598 9.24697C11.5165 9.24697 10.5864 8.31283 10.5864 7.16361C10.5864 6.26824 11.3109 5.54087 12.2006 5.54087C12.3971 5.54087 12.556 5.70056 12.556 5.89809C12.556 6.09563 12.3971 6.25532 12.2006 6.25532C11.703 6.25532 11.2971 6.66239 11.2971 7.16361C11.2971 7.91868 11.9077 8.53252 12.6588 8.53252C13.7258 8.53252 14.5936 7.66022 14.5936 6.58762C14.5936 5.09041 13.0353 2.99691 10.1107 2.95999C10.0924 2.95999 10.0777 2.95075 10.0611 2.94891C6.45248 3.82766 3.76389 7.10085 3.76389 10.9943V11.3654C3.76389 11.5389 3.64084 11.6866 3.47097 11.7171C2.45173 11.9017 1.71071 12.7897 1.71071 13.8318C1.71071 14.8869 2.46183 15.7786 3.49668 15.9512C3.65737 15.9779 3.77858 16.1099 3.79327 16.2724C3.94845 18.0502 4.7565 19.3637 6.19446 20.1751C7.51855 20.9228 9.41746 21.2855 12.0005 21.2855C14.5835 21.2855 16.4814 20.9228 17.8055 20.1751C19.2444 19.3628 20.0525 18.0502 20.2076 16.2724C20.2223 16.1099 20.3435 15.9779 20.5042 15.9512C21.5382 15.7786 22.2893 14.8869 22.2893 13.8318C22.2893 12.7897 21.5492 11.9008 20.5299 11.718C20.3601 11.6866 20.2361 11.5389 20.2361 11.3654V10.9943C20.2361 6.57562 16.7744 2.95445 12.4348 2.72645ZM7.56079 12.9844C8.22192 12.9844 8.76184 13.5263 8.76184 14.1918C8.76184 14.8564 8.22284 15.3983 7.56079 15.3983C6.89966 15.3983 6.36066 14.8573 6.36066 14.1918C6.36066 13.5263 6.89874 12.9844 7.56079 12.9844ZM16.4401 12.9844C17.1013 12.9844 17.6412 13.5263 17.6412 14.1918C17.6412 14.8564 17.1022 15.3983 16.4401 15.3983C15.7781 15.3983 15.2391 14.8573 15.2391 14.1918C15.2391 13.5263 15.7781 12.9844 16.4401 12.9844ZM7.56079 13.6989C7.29083 13.6989 7.07137 13.9204 7.07137 14.1918C7.07137 14.4632 7.29083 14.6838 7.56079 14.6838C7.83075 14.6838 8.05113 14.4632 8.05113 14.1918C8.05113 13.9204 7.83075 13.6989 7.56079 13.6989ZM16.4401 13.6989C16.1692 13.6989 15.9498 13.9204 15.9498 14.1918C15.9498 14.4632 16.1702 14.6838 16.4401 14.6838C16.7101 14.6838 16.9295 14.4632 16.9295 14.1918C16.9295 13.9204 16.7101 13.6989 16.4401 13.6989Z" fill="#838A94"/>
<path fill-rule="evenodd" clip-rule="evenodd" d="M15.0003 17.1474C14.1161 18.1222 13.0794 18.6363 12.0005 18.6363C10.9224 18.6363 9.88484 18.1222 9.00058 17.1474C8.9308 17.0718 8.95192 16.9896 8.97028 16.9471C8.98222 16.9176 9.03272 16.8244 9.15393 16.8244H14.847C14.9682 16.8244 15.0187 16.9176 15.0306 16.9471C15.049 16.9896 15.0701 17.0718 15.0003 17.1474ZM14.8479 16.1099H9.15301C8.78755 16.1099 8.46801 16.3204 8.31925 16.6582C8.17417 16.9905 8.23294 17.3634 8.47535 17.6302C9.49827 18.7563 10.7168 19.3517 12.0014 19.3517C13.2842 19.3517 14.5026 18.7563 15.5256 17.6302C15.7671 17.3625 15.8267 16.9914 15.6817 16.6582C15.5329 16.3204 15.2134 16.1099 14.8479 16.1099Z" fill="#1A9FDF"/>
</svg>
