<svg width="24" height="24" viewBox="0 0 24 24" fill="none" xmlns="http://www.w3.org/2000/svg">
<path d="M2 18.8846C2 14.7921 5.84684 13.4605 8.66667 13.1951M20.5402 13.4691L13.4645 20.5355M14.2222 5.88889C14.2222 8.03666 12.4811 9.77778 10.3333 9.77778C8.18556 9.77778 6.44444 8.03666 6.44444 5.88889C6.44444 3.74111 8.18556 2 10.3333 2C12.4811 2 14.2222 3.74111 14.2222 5.88889ZM22 17C22 19.7614 19.7614 22 17 22C14.2386 22 12 19.7614 12 17C12 14.2386 14.2386 12 17 12C19.7614 12 22 14.2386 22 17Z" stroke="white" stroke-width="2" stroke-linecap="round" stroke-linejoin="round"/>
</svg>
