<svg width="24" height="24" viewBox="0 0 24 24" fill="none" xmlns="http://www.w3.org/2000/svg">
<path d="M3.51428 5H12.0271C16.9827 5 21 8.80558 21 13.5C21 18.1944 16.9827 22 12.0271 22H4.02857" stroke="white" stroke-width="2" stroke-linecap="round" stroke-linejoin="round"/>
<path d="M5.57143 2L3 5L5.57143 8" stroke="white" stroke-width="2" stroke-linecap="round" stroke-linejoin="round"/>
</svg>
