<svg width="24" height="24" viewBox="0 0 24 24" fill="none" xmlns="http://www.w3.org/2000/svg">
<path fill-rule="evenodd" clip-rule="evenodd" d="M21.6294 17.6729L20.3811 16.5172C20.1553 16.3073 19.7564 16.4694 19.7564 16.7824V21.4937C19.7564 21.9605 19.0175 21.9609 19.0175 21.4937V18.7822C19.0175 18.5816 18.852 18.4203 18.6475 18.4203C18.443 18.4203 18.2785 18.5816 18.2785 18.7822V21.4937C18.2785 21.9607 17.5386 21.9607 17.5386 21.4937V16.7824C17.5386 16.4695 17.1424 16.306 16.9158 16.519C16.6788 16.7478 16.3702 16.8626 16.0606 16.8626C15.7474 16.8626 15.4341 16.7441 15.1962 16.5072L15.1776 16.4908L13.3678 14.7143C13.1451 14.4932 12.7339 14.6506 12.7339 14.9704V21.4937C12.7339 21.6943 12.5684 21.8556 12.3639 21.8556C12.1604 21.8556 11.9949 21.6943 11.9949 21.4937V17.1452C11.9949 16.9447 11.8295 16.7824 11.625 16.7824C11.4205 16.7824 11.2559 16.9447 11.2559 17.1452V21.4937C11.2559 21.6943 11.0905 21.8556 10.886 21.8556C10.6815 21.8556 10.516 21.6943 10.516 21.4937V14.9704C10.516 14.6536 10.1092 14.4923 9.88583 14.7143L8.6384 15.9375C8.4585 16.1162 8.07033 16.0814 7.85853 15.9758L6.62227 15.3487C6.35542 15.211 6.01739 15.4613 6.09523 15.757L7.08982 19.6818H6.45124C6.24674 19.6818 6.08129 19.844 6.08129 20.0445V21.4937C6.08129 21.6943 5.91583 21.8556 5.71227 21.8556C5.50777 21.8556 5.34232 21.6943 5.34232 21.4937V20.0445C5.34232 19.844 5.17686 19.6818 4.97237 19.6818C4.76787 19.6818 4.60335 19.844 4.60335 20.0445V21.4937C4.60335 21.6943 4.43789 21.8556 4.2334 21.8556C4.0289 21.8556 3.86437 21.6943 3.86437 21.4937V20.0445C3.86437 19.844 3.69799 19.6818 3.49442 19.6818H2.85863L3.85322 15.7561C3.94235 15.4049 3.48319 15.1584 3.23044 15.4161L2.3539 16.3003C1.993 16.6582 1.38169 16.0944 1.7683 15.7242L3.92944 13.5823C4.16647 13.3517 4.476 13.2086 4.80784 13.174C4.92034 13.1813 5.03184 13.1812 5.13875 13.174C5.53234 13.214 5.75485 13.4178 6.06363 13.6197L7.99982 14.9841C8.06489 15.0297 8.14018 15.0516 8.21547 15.0516C8.31121 15.0516 8.40602 15.016 8.4776 14.9458L10.5839 12.8805C10.872 12.5979 11.2504 12.4566 11.6278 12.4566C12.0051 12.4566 12.3825 12.5979 12.6716 12.8805L15.1348 15.3013C15.3951 15.5574 15.7362 15.6868 16.0774 15.6868C16.4074 15.6868 16.7383 15.5665 16.9948 15.325L17.6734 14.6924C17.9652 14.419 18.3417 14.2823 18.7172 14.2823C19.0937 14.2823 19.4692 14.419 19.7611 14.6924L22.2215 17.106C22.5262 17.4047 22.0329 18.0826 21.6294 17.6729ZM3.50279 11.7338H2.98598C3.25094 11.2125 3.42071 10.5982 3.79838 10.1397C4.08653 9.75963 4.52805 9.55911 4.97515 9.55911C5.4366 9.55911 5.87404 9.77977 6.15007 10.1397C6.46549 10.6552 6.68943 11.1966 6.96247 11.7338H6.44659C6.3304 11.7338 6.22164 11.7876 6.151 11.8788C5.89631 12.2096 5.50777 12.4165 5.08484 12.4457C5.00935 12.4439 4.93345 12.4402 4.85803 12.4457C4.43882 12.4147 4.05307 12.2087 3.79931 11.8788C3.73052 11.7876 3.62084 11.7329 3.50372 11.7329L3.50279 11.7338ZM11.6259 8.8345C12.442 8.8345 13.1038 9.48346 13.1038 10.2837C13.1038 11.0849 12.442 11.7329 11.6259 11.7329C10.8088 11.7329 10.147 11.0849 10.147 10.2837C10.147 9.48346 10.8088 8.8345 11.625 8.8345H11.6259ZM18.6475 11.3711C19.261 11.3711 19.7564 11.8578 19.7564 12.4585C19.7564 13.0591 19.2601 13.5458 18.6475 13.5458C18.035 13.5458 17.5386 13.0582 17.5386 12.4585C17.5386 11.8578 18.035 11.3711 18.6475 11.3711ZM22.6863 16.6503L20.2258 14.2376C20.0585 14.0818 19.8726 13.9551 19.6746 13.8594C20.1199 13.5449 20.4127 13.0354 20.4127 12.4585C20.4127 11.5042 19.6207 10.7276 18.6475 10.7276C17.6743 10.7276 16.8833 11.5042 16.8833 12.4585C16.8833 13.0609 17.1993 13.5914 17.678 13.9013C17.5135 13.9897 17.3601 14.0982 17.2216 14.2276C16.9164 14.5112 16.5444 15.0434 16.0783 15.0434C15.8989 15.0434 15.7297 14.9741 15.6033 14.8483L13.1364 12.4256C13.0016 12.2944 12.8519 12.1841 12.6921 12.0939C13.3297 11.7311 13.7601 11.0566 13.7601 10.2837C13.7601 9.12981 12.8027 8.19101 11.6259 8.19101C10.4482 8.19101 9.49078 9.12981 9.49078 10.2837C9.49078 11.0585 9.92301 11.7329 10.5616 12.0957C10.4036 12.1859 10.2548 12.2944 10.121 12.4238L8.18573 14.3224L6.46518 13.1102C6.33876 12.9907 6.19562 12.8941 6.04689 12.8094C6.24581 12.6954 6.428 12.5514 6.5823 12.3773C6.93258 12.3773 7.30931 12.4095 7.52112 12.072C7.64196 11.8824 7.65125 11.6454 7.54993 11.4458C6.97475 10.3169 6.49912 8.91562 4.97515 8.91562C3.4051 8.91562 2.97714 10.3111 2.39852 11.4458C2.2972 11.6454 2.30835 11.8824 2.42826 12.072C2.64007 12.4095 3.0168 12.3773 3.36708 12.3773C3.52045 12.5505 3.70264 12.6954 3.90248 12.8094C3.74632 12.8978 3.5976 12.999 3.4684 13.1247L1.30261 15.2712C0.64765 15.9044 1.12682 17.0641 2.0611 17.0641C2.44184 17.0641 2.71083 16.8637 2.96181 16.6111L2.22284 19.5268C2.1745 19.7182 2.21819 19.9224 2.34367 20.0782C2.56264 20.3527 2.8911 20.3253 3.20813 20.3253V21.4937C3.20813 22.0479 3.66825 22.4991 4.2334 22.4991C4.52341 22.4991 4.78646 22.3806 4.97237 22.1901C5.1592 22.3815 5.42133 22.5 5.71227 22.5C6.27742 22.5 6.73753 22.0479 6.73753 21.4937V20.3253C7.05595 20.3253 7.38648 20.3537 7.60663 20.0782C7.73119 19.9224 7.77488 19.7182 7.72654 19.5268L6.8844 16.2055L7.55737 16.5463C8.03813 16.7875 8.70794 16.7829 9.10503 16.3896L9.8598 15.6486V21.4937C9.8598 22.0479 10.3208 22.4991 10.886 22.4991C11.176 22.4991 11.4381 22.3806 11.625 22.1901C11.8118 22.3815 12.0739 22.5 12.3639 22.5C12.9309 22.5 13.3901 22.0479 13.3901 21.4937V15.6467L14.7147 16.9456L14.7324 16.9638C15.0837 17.312 15.5568 17.5061 16.0616 17.5061C16.3507 17.5061 16.6295 17.4423 16.8833 17.3211V21.4937C16.8833 22.3886 18.0303 22.8194 18.6475 22.1901C19.2641 22.8217 20.4127 22.3883 20.4127 21.4937V17.4314L21.1721 18.1332C21.5832 18.5382 22.2753 18.5418 22.6863 18.135C23.1046 17.7258 23.1046 17.0595 22.6863 16.6503Z" fill="#838A94"/>
<path fill-rule="evenodd" clip-rule="evenodd" d="M15.463 2.14349C14.9536 2.1444 14.2509 2.34401 13.7963 2.90456C13.3632 3.43776 13.2442 4.19427 13.4524 5.09206C13.7889 6.5431 16.0328 8.19466 17.1101 8.98945C17.5331 9.30114 17.5426 9.29993 17.9653 8.98854C19.0435 8.19557 21.2855 6.5431 21.622 5.09297C21.8302 4.19427 21.7122 3.43776 21.2781 2.90456C20.8235 2.34492 20.1208 2.1444 19.6152 2.14349C18.8855 2.14349 18.1828 2.53542 17.8212 3.13971C17.7022 3.33659 17.3722 3.33659 17.2542 3.13971C16.8917 2.53451 16.1889 2.14349 15.463 2.14349ZM17.3174 9.96289C17.2086 9.86628 16.992 9.70677 16.7169 9.50352C15.4881 8.59935 13.2024 6.91589 12.8129 5.23516C12.4913 3.85156 12.891 2.98568 13.2832 2.50352C13.7926 1.87643 14.606 1.50091 15.4583 1.5C16.2661 1.5 17.0246 1.84635 17.5377 2.42695C18.0489 1.84635 18.8074 1.5 19.6114 1.5C20.4694 1.50182 21.2818 1.87643 21.7912 2.50352C22.1834 2.98659 22.5831 3.85156 22.2615 5.23516C21.872 6.91589 19.5863 8.59844 18.3594 9.50352C18.0842 9.70586 17.8667 9.86628 17.757 9.96289C17.6336 10.0713 17.4428 10.0749 17.3174 9.96289Z" fill="#1A9FDF"/>
</svg>
